(kicad_symbol_lib
	(version 20231120)
	(generator "kicad_symbol_editor")
	(generator_version "8.0")
	(symbol "1206L050_15YR"
		(pin_names hide)
		(exclude_from_sim no)
		(in_bom yes)
		(on_board yes)
		(property "Reference" "F"
			(at 13.97 6.35 0)
			(effects
				(font
					(size 1.27 1.27)
				)
				(justify left top)
			)
		)
		(property "Value" "1206L050_15YR"
			(at 13.97 3.81 0)
			(effects
				(font
					(size 1.27 1.27)
				)
				(justify left top)
			)
		)
		(property "Footprint" "Fuse:1206L05015YR_mkit"
			(at 13.97 -96.19 0)
			(effects
				(font
					(size 1.27 1.27)
				)
				(justify left top)
				(hide yes)
			)
		)
		(property "Datasheet" "https://m.littelfuse.com/~/media/electronics/datasheets/resettable_ptcs/littelfuse_ptc_1206l_datasheet.pdf.pdf"
			(at 13.97 -196.19 0)
			(effects
				(font
					(size 1.27 1.27)
				)
				(justify left top)
				(hide yes)
			)
		)
		(property "Description" "Littelfuse 0.5A Resettable Surface Mount Fuse, 15V dc"
			(at 0 0 0)
			(effects
				(font
					(size 1.27 1.27)
				)
				(hide yes)
			)
		)
		(property "Height" "0.75"
			(at 13.97 -396.19 0)
			(effects
				(font
					(size 1.27 1.27)
				)
				(justify left top)
				(hide yes)
			)
		)
		(property "Mouser Part Number" "576-1206L050/15YR"
			(at 13.97 -496.19 0)
			(effects
				(font
					(size 1.27 1.27)
				)
				(justify left top)
				(hide yes)
			)
		)
		(property "Mouser Price/Stock" "https://www.mouser.co.uk/ProductDetail/Littelfuse/1206L050-15YR?qs=PWhpLWeW8wdxWp9etyyAeA%3D%3D"
			(at 13.97 -596.19 0)
			(effects
				(font
					(size 1.27 1.27)
				)
				(justify left top)
				(hide yes)
			)
		)
		(property "Manufacturer_Name" "LITTELFUSE"
			(at 13.97 -696.19 0)
			(effects
				(font
					(size 1.27 1.27)
				)
				(justify left top)
				(hide yes)
			)
		)
		(property "Manufacturer_Part_Number" "1206L050/15YR"
			(at 13.97 -796.19 0)
			(effects
				(font
					(size 1.27 1.27)
				)
				(justify left top)
				(hide yes)
			)
		)
		(symbol "1206L050_15YR_1_1"
			(polyline
				(pts
					(xy 5.588 -2.032) (xy 7.112 -2.032)
				)
				(stroke
					(width 0.254)
					(type default)
				)
				(fill
					(type none)
				)
			)
			(polyline
				(pts
					(xy 10.668 2.032) (xy 7.112 -2.032)
				)
				(stroke
					(width 0.254)
					(type default)
				)
				(fill
					(type none)
				)
			)
			(polyline
				(pts
					(xy 10.668 2.032) (xy 12.192 2.032)
				)
				(stroke
					(width 0.254)
					(type default)
				)
				(fill
					(type none)
				)
			)
			(rectangle
				(start 5.08 1.27)
				(end 12.7 -1.27)
				(stroke
					(width 0.254)
					(type default)
				)
				(fill
					(type background)
				)
			)
			(pin passive line
				(at 0 0 0)
				(length 5.08)
				(name "1"
					(effects
						(font
							(size 1.27 1.27)
						)
					)
				)
				(number "1"
					(effects
						(font
							(size 1.27 1.27)
						)
					)
				)
			)
			(pin passive line
				(at 17.78 0 180)
				(length 5.08)
				(name "2"
					(effects
						(font
							(size 1.27 1.27)
						)
					)
				)
				(number "2"
					(effects
						(font
							(size 1.27 1.27)
						)
					)
				)
			)
		)
	)
	(symbol "PESD24VF1BLYL"
		(pin_numbers hide)
		(pin_names hide)
		(exclude_from_sim no)
		(in_bom yes)
		(on_board yes)
		(property "Reference" "D6"
			(at -3.81 2.54 0)
			(effects
				(font
					(size 1.27 1.27)
				)
				(justify left bottom)
			)
		)
		(property "Value" "24V"
			(at -2.54 -2.54 90)
			(effects
				(font
					(size 1.27 1.27)
				)
				(justify left bottom)
			)
		)
		(property "Footprint" "Diode_SMD:Nexperia_SOD882_mkit"
			(at 1.27 -96.19 0)
			(effects
				(font
					(size 1.27 1.27)
				)
				(justify left bottom)
				(hide yes)
			)
		)
		(property "Datasheet" "https://assets.nexperia.com/documents/data-sheet/PESD24VF1BL.pdf"
			(at 1.27 -196.19 0)
			(effects
				(font
					(size 1.27 1.27)
				)
				(justify left bottom)
				(hide yes)
			)
		)
		(property "Description" ""
			(at 0 0 0)
			(effects
				(font
					(size 1.27 1.27)
				)
				(hide yes)
			)
		)
		(property "Height" "0"
			(at 1.27 -396.19 0)
			(effects
				(font
					(size 1.27 1.27)
				)
				(justify left bottom)
				(hide yes)
			)
		)
		(property "Mouser Part Number" "771-PESD24VF1BLYL"
			(at 1.27 -496.19 0)
			(effects
				(font
					(size 1.27 1.27)
				)
				(justify left bottom)
				(hide yes)
			)
		)
		(property "Mouser Price/Stock" "https://www.mouser.co.uk/ProductDetail/Nexperia/PESD24VF1BLYL?qs=M%2FOdCRO8QQ2u4QQQVkgemw%3D%3D"
			(at 1.27 -596.19 0)
			(effects
				(font
					(size 1.27 1.27)
				)
				(justify left bottom)
				(hide yes)
			)
		)
		(property "Manufacturer_Name" "Nexperia"
			(at 1.27 -696.19 0)
			(effects
				(font
					(size 1.27 1.27)
				)
				(justify left bottom)
				(hide yes)
			)
		)
		(property "Manufacturer_Part_Number" "PESD24VF1BLYL"
			(at 1.27 -796.19 0)
			(effects
				(font
					(size 1.27 1.27)
				)
				(justify left bottom)
				(hide yes)
			)
		)
		(property "Check" ""
			(at 0 0 0)
			(effects
				(font
					(size 1.27 1.27)
				)
				(hide yes)
			)
		)
		(property "TME Part Number" ""
			(at 0 0 0)
			(effects
				(font
					(size 1.27 1.27)
				)
				(hide yes)
			)
		)
		(property "Exclude from BOM" ""
			(at 0 0 0)
			(effects
				(font
					(size 1.27 1.27)
				)
				(hide yes)
			)
		)
		(property "Exclude from bill of materials" ""
			(at 0 0 0)
			(effects
				(font
					(size 1.27 1.27)
				)
				(hide yes)
			)
		)
		(property "CUI_purchase_URL" ""
			(at 0 0 0)
			(effects
				(font
					(size 1.27 1.27)
				)
				(hide yes)
			)
		)
		(property "PART_REV" ""
			(at 0 0 0)
			(effects
				(font
					(size 1.27 1.27)
				)
				(hide yes)
			)
		)
		(symbol "PESD24VF1BLYL_1_1"
			(polyline
				(pts
					(xy -1.27 -2.54) (xy 0 0)
				)
				(stroke
					(width 0.254)
					(type default)
				)
				(fill
					(type none)
				)
			)
			(polyline
				(pts
					(xy -1.27 -2.54) (xy 1.27 -2.54)
				)
				(stroke
					(width 0.254)
					(type default)
				)
				(fill
					(type none)
				)
			)
			(polyline
				(pts
					(xy -1.27 0) (xy -2.54 -1.27)
				)
				(stroke
					(width 0.254)
					(type default)
				)
				(fill
					(type none)
				)
			)
			(polyline
				(pts
					(xy -1.27 2.54) (xy 0 0)
				)
				(stroke
					(width 0.254)
					(type default)
				)
				(fill
					(type none)
				)
			)
			(polyline
				(pts
					(xy -1.27 2.54) (xy 1.27 2.54)
				)
				(stroke
					(width 0.254)
					(type default)
				)
				(fill
					(type none)
				)
			)
			(polyline
				(pts
					(xy 0 0) (xy 1.27 -2.54)
				)
				(stroke
					(width 0.254)
					(type default)
				)
				(fill
					(type none)
				)
			)
			(polyline
				(pts
					(xy 0 0) (xy 1.27 2.54)
				)
				(stroke
					(width 0.254)
					(type default)
				)
				(fill
					(type none)
				)
			)
			(polyline
				(pts
					(xy 1.27 0) (xy -1.27 0)
				)
				(stroke
					(width 0.254)
					(type default)
				)
				(fill
					(type none)
				)
			)
			(polyline
				(pts
					(xy 1.27 0) (xy 2.54 1.27)
				)
				(stroke
					(width 0.254)
					(type default)
				)
				(fill
					(type none)
				)
			)
			(pin passive line
				(at 0 -3.81 90)
				(length 1.27)
				(name "~"
					(effects
						(font
							(size 1.27 1.27)
						)
					)
				)
				(number "1"
					(effects
						(font
							(size 1.27 1.27)
						)
					)
				)
			)
			(pin passive line
				(at 0 3.81 270)
				(length 1.27)
				(name "~"
					(effects
						(font
							(size 1.27 1.27)
						)
					)
				)
				(number "2"
					(effects
						(font
							(size 1.27 1.27)
						)
					)
				)
			)
		)
	)
)