(kicad_symbol_lib
	(version 20231120)
	(generator "kicad_symbol_editor")
	(generator_version "8.0")
	(symbol "SBR2A40P1-7"
		(pin_names hide)
		(exclude_from_sim no)
		(in_bom yes)
		(on_board yes)
		(property "Reference" "D"
			(at -7.62 6.35 0)
			(effects
				(font
					(size 1.27 1.27)
				)
				(justify left top)
			)
		)
		(property "Value" "SBR2A40P1-7"
			(at -7.366 8.636 0)
			(effects
				(font
					(size 1.27 1.27)
				)
				(justify left top)
			)
		)
		(property "Footprint" "POWERDI123_1"
			(at 12.7 -93.65 0)
			(effects
				(font
					(size 1.27 1.27)
				)
				(justify left top)
				(hide yes)
			)
		)
		(property "Datasheet" "https://www.diodes.com/assets/Datasheets/SBR2A40P1.pdf"
			(at 12.7 -193.65 0)
			(effects
				(font
					(size 1.27 1.27)
				)
				(justify left top)
				(hide yes)
			)
		)
		(property "Description" "Diodes Inc SBR2A40P1-7, SMT Schottky Switching Diode, 40V 2A, 2-Pin PowerDI 123"
			(at 1.778 14.986 0)
			(effects
				(font
					(size 1.27 1.27)
				)
				(hide yes)
			)
		)
		(property "Height" ""
			(at 12.7 -393.65 0)
			(effects
				(font
					(size 1.27 1.27)
				)
				(justify left top)
				(hide yes)
			)
		)
		(property "Manufacturer_Name" "Diodes Incorporated"
			(at 12.7 -493.65 0)
			(effects
				(font
					(size 1.27 1.27)
				)
				(justify left top)
				(hide yes)
			)
		)
		(property "Manufacturer_Part_Number" "SBR2A40P1-7"
			(at 12.7 -593.65 0)
			(effects
				(font
					(size 1.27 1.27)
				)
				(justify left top)
				(hide yes)
			)
		)
		(property "Mouser Part Number" "621-SBR2A40P1-7"
			(at 12.7 -693.65 0)
			(effects
				(font
					(size 1.27 1.27)
				)
				(justify left top)
				(hide yes)
			)
		)
		(property "Mouser Price/Stock" "https://www.mouser.co.uk/ProductDetail/Diodes-Incorporated/SBR2A40P1-7?qs=KhBT%2FQof6UyH2neobXoDyQ%3D%3D"
			(at 12.7 -793.65 0)
			(effects
				(font
					(size 1.27 1.27)
				)
				(justify left top)
				(hide yes)
			)
		)
		(property "Arrow Part Number" "SBR2A40P1-7"
			(at 12.7 -893.65 0)
			(effects
				(font
					(size 1.27 1.27)
				)
				(justify left top)
				(hide yes)
			)
		)
		(property "Arrow Price/Stock" "https://www.arrow.com/en/products/sbr2a40p1-7/diodes-incorporated?region=nac"
			(at 12.7 -993.65 0)
			(effects
				(font
					(size 1.27 1.27)
				)
				(justify left top)
				(hide yes)
			)
		)
		(symbol "SBR2A40P1-7_1_1"
			(polyline
				(pts
					(xy -2.54 0) (xy -5.08 0)
				)
				(stroke
					(width 0.254)
					(type default)
				)
				(fill
					(type none)
				)
			)
			(polyline
				(pts
					(xy 1.524 -1.524) (xy 1.524 -2.54)
				)
				(stroke
					(width 0.254)
					(type default)
				)
				(fill
					(type none)
				)
			)
			(polyline
				(pts
					(xy 2.54 -2.54) (xy 1.524 -2.54)
				)
				(stroke
					(width 0.254)
					(type default)
				)
				(fill
					(type none)
				)
			)
			(polyline
				(pts
					(xy 2.54 -2.54) (xy 2.54 2.54)
				)
				(stroke
					(width 0.254)
					(type default)
				)
				(fill
					(type none)
				)
			)
			(polyline
				(pts
					(xy 2.54 2.54) (xy 3.556 2.54)
				)
				(stroke
					(width 0.254)
					(type default)
				)
				(fill
					(type none)
				)
			)
			(polyline
				(pts
					(xy 3.556 1.524) (xy 3.556 2.54)
				)
				(stroke
					(width 0.254)
					(type default)
				)
				(fill
					(type none)
				)
			)
			(polyline
				(pts
					(xy 5.08 0) (xy 2.54 0)
				)
				(stroke
					(width 0.254)
					(type default)
				)
				(fill
					(type none)
				)
			)
			(polyline
				(pts
					(xy 2.54 0) (xy -2.54 -2.54) (xy -2.54 2.54) (xy 2.54 0)
				)
				(stroke
					(width 0.254)
					(type default)
				)
				(fill
					(type outline)
				)
			)
			(pin passive line
				(at 7.62 0 180)
				(length 2.54)
				(name "K"
					(effects
						(font
							(size 1.27 1.27)
						)
					)
				)
				(number "1"
					(effects
						(font
							(size 1.27 1.27)
						)
					)
				)
			)
			(pin passive line
				(at -7.62 0 0)
				(length 2.54)
				(name "A"
					(effects
						(font
							(size 1.27 1.27)
						)
					)
				)
				(number "2"
					(effects
						(font
							(size 1.27 1.27)
						)
					)
				)
			)
		)
	)
)